{
    "context": "..",
    "name": "slacker",
    "image": "docker.io/library/python:3-slim",
    "runArgs": [
        "--env-file",
        "${localWorkspaceFolder}/.devcontainer/devcontainer.env"
    ],
    "settings": {
        "terminal.integrated.shell.linux": "/bin/bash"
    },
    "extensions": [
        "ms-python.python"
    ],
    // "appPort": "127.0.0.1:8000:8000",
    "postCreateCommand": "pip install -r /workspaces/slacker/requirements.txt",
    "shutdownAction": "stopContainer"
}